<?xml version="1.0" encoding="UTF-8" standalone="no"?>
<svg xmlns:rdf="http://www.w3.org/1999/02/22-rdf-syntax-ns#" xmlns="http://www.w3.org/2000/svg" version="1.1" xmlns:cc="http://creativecommons.org/ns#" viewBox="0 0 16.00979 16" xmlns:dc="http://purl.org/dc/elements/1.1/">
<metadata>
<rdf:RDF>
<cc:Work rdf:about="">
<dc:format>image/svg+xml</dc:format>
<dc:type rdf:resource="http://purl.org/dc/dcmitype/StillImage"/>
</cc:Work>
</rdf:RDF>
</metadata>
<g transform="translate(45.00979 -175)">
<rect style="color:#000000" height="16" width="16" y="175" x="-45" fill="none"/>
<path stroke-linejoin="round" d="m-44.50979 175.5032c6.98772 0 6.97087 9.1359 6.97087 11.1359 4.51512-2.5192 7.51512-5.6391 8.03482-11.1359" stroke="#646464" stroke-linecap="round" stroke-miterlimit="0" stroke-width="1.0000002" fill="none"/>
<rect stroke-linejoin="round" style="color:#000000" fill-rule="evenodd" fill-opacity=".3921569" transform="rotate(-44.99984)" height="3.831147" width="3.791844" stroke="#00f" stroke-linecap="round" stroke-miterlimit="0" y="103.5115" x="-160.3997" stroke-width=".9051018" fill="#6464ff"/>
</g>
</svg>
