<?xml version="1.0" encoding="UTF-8" standalone="no"?>
<svg xmlns:rdf="http://www.w3.org/1999/02/22-rdf-syntax-ns#" xmlns="http://www.w3.org/2000/svg" version="1.1" xmlns:cc="http://creativecommons.org/ns#" xmlns:xlink="http://www.w3.org/1999/xlink" viewBox="0 0 24 24" xmlns:dc="http://purl.org/dc/elements/1.1/">
<metadata>
<rdf:RDF>
<cc:Work rdf:about="">
<dc:format>image/svg+xml</dc:format>
<dc:type rdf:resource="http://purl.org/dc/dcmitype/StillImage"/>
</cc:Work>
</rdf:RDF>
</metadata>
<defs>
<linearGradient id="a">
<stop stop-color="#fff" offset="0"/>
<stop stop-color="#98b6d3" offset="1"/>
</linearGradient>
<linearGradient id="d" y2="-6.5" xlink:href="#a" gradientUnits="userSpaceOnUse" x2="-6.5" y1="6.5" x1="6.5"/>
<linearGradient id="c" y2="5.5" xlink:href="#a" gradientUnits="userSpaceOnUse" x2="5.5" y1="-5.5" x1="-5.5"/>
<g id="b">
<rect stroke-linejoin="round" height="13" width="13" stroke="#222" y="-6.5" x="-6.5" fill="none"/>
<rect height="11" width="11" stroke="url(#c)" y="-5.5" x="-5.5" fill="url(#d)"/>
</g>
</defs>
<use opacity=".5" xlink:href="#b" transform="translate(12,12)"/>
<use xlink:href="#b" transform="translate(12,12) skewX(37)"/>
<path d="m0 2.5 3-2.5v2h4v1h-4v2z"/>
<path d="m24 21.5-3 2.5v-2h-4v-1h4v-2z"/>
</svg>
