<?xml version="1.0" encoding="UTF-8" standalone="no"?>
<svg xmlns:rdf="http://www.w3.org/1999/02/22-rdf-syntax-ns#" xmlns="http://www.w3.org/2000/svg" version="1.1" xmlns:cc="http://creativecommons.org/ns#" xmlns:xlink="http://www.w3.org/1999/xlink" viewBox="0 0 24.017883 24.015197" xmlns:dc="http://purl.org/dc/elements/1.1/">
<metadata>
<rdf:RDF>
<cc:Work rdf:about="">
<dc:format>image/svg+xml</dc:format>
<dc:type rdf:resource="http://purl.org/dc/dcmitype/StillImage"/>
</cc:Work>
</rdf:RDF>
</metadata>
<defs>
<linearGradient id="a" y2="27.32372" gradientUnits="userSpaceOnUse" x2="922.5571" y1="20.45271" x1="915.0701">
<stop stop-color="#5a5a5a" offset="0"/>
<stop offset="1"/>
</linearGradient>
<linearGradient id="b" y2="30.79385" gradientUnits="userSpaceOnUse" x2="917.3691" gradientTransform="matrix(1.159934,0,0,1.224222,-143.4594,-12.87852)" y1="19.1921" x1="905.4675">
<stop stop-color="#fff" offset="0"/>
<stop stop-color="#aaa" offset="1"/>
</linearGradient>
</defs>
<g transform="translate(-900.0068,-4.9991)">
<g transform="translate(.0246443 .0142967)" fill-rule="evenodd">
<path d="m923 6h1v21l-2 2h-21v-1h22v-22z" fill-opacity=".1786744"/>
<rect stroke-linejoin="round" style="color:#000000" height="22.03599" width="22.03876" stroke="#000" stroke-linecap="round" y="5.484803" x="900.4821" stroke-width=".9999998" fill="url(#b)"/>
</g>
<path d="m906.4821 10.47669c-0.008 2.01618 0 3.00811 0 3.50811 0 0.51492 0.5 0.50406 1 0.50812" stroke="#000" stroke-linecap="square" stroke-width="1.0000001px" fill="none"/>
<path d="m909.4821 7.484803v5.999997c0 0.5 0 1 0.5 1h2.5c0.5 0 1 0 1-2s-0.5-2-1-2h-3" stroke="#000" stroke-linecap="square" stroke-width="1px" fill="none"/>
<path d="m919.5148 11.45983c-0.0327-0.97503-0.5327-0.97503-1.0327-0.97503h-2c-0.5 0-1 0-1 2s0.5 2 1 2 2 0 3-0.0069" stroke="#000" stroke-linecap="square" fill="none"/>
<path d="m906.4821 10.4848h-3c-0.5 0-1 0-1 2s0.4884 2.01814 1 2c0.4884-0.01731 2 0 3 0.0098" stroke="#000" stroke-linecap="square" stroke-width=".9999998" fill="none"/>
<g>
<path d="m914.5068 19.4991h8.9409v8.94182h-8.9409v-8.94182z" fill-rule="evenodd" stroke="url(#a)" stroke-width=".9999998px" fill="#fff"/>
<path d="m919.0067 20.9991v6" stroke="#000" stroke-width="2" fill="none"/>
<path stroke-linejoin="round" d="m922.0067 23.9991h-6" stroke="#000" stroke-width="2" fill="none"/>
</g>
<g transform="translate(.0067 -.0009)">
<path d="m906.5 24.5-3-3 3-3m3 6 3-3-3-3" stroke="#000" stroke-linecap="square" stroke-width="1px" fill="none"/>
</g>
</g>
</svg>
