<?xml version="1.0" encoding="UTF-8" standalone="no"?>
<svg xmlns:rdf="http://www.w3.org/1999/02/22-rdf-syntax-ns#" xmlns="http://www.w3.org/2000/svg" version="1.1" xmlns:cc="http://creativecommons.org/ns#" xmlns:xlink="http://www.w3.org/1999/xlink" viewBox="0 0 24.026232 24.028049" xmlns:dc="http://purl.org/dc/elements/1.1/">
<metadata>
<rdf:RDF>
<cc:Work rdf:about="">
<dc:format>image/svg+xml</dc:format>
<dc:type rdf:resource="http://purl.org/dc/dcmitype/StillImage"/>
</cc:Work>
</rdf:RDF>
</metadata>
<defs>
<linearGradient id="g" y2="120.8261" gradientUnits="userSpaceOnUse" x2="73.44604" gradientTransform="matrix(.845944 0 0 1 30.563 -.625005)" y1="122.5006" x1="64.94328">
<stop stop-color="#ffa01e" offset="0"/>
<stop offset="1"/>
</linearGradient>
<linearGradient id="i" y2="120.5792" xlink:href="#a" gradientUnits="userSpaceOnUse" x2="98.37736" gradientTransform="matrix(.833333 0 0 1 7.291667 1.125)" y1="120.625" x1="95.23788"/>
<linearGradient id="c" y2="146.119" xlink:href="#b" gradientUnits="userSpaceOnUse" x2="172.708" y1="167.853" x1="182.981"/>
<linearGradient id="b">
<stop stop-color="#fff" offset="0"/>
<stop stop-color="#98b6d3" offset="1"/>
</linearGradient>
<linearGradient id="d" y2="41.695" xlink:href="#b" gradientUnits="userSpaceOnUse" x2="-21.25" gradientTransform="translate(200,120)" y1="34.12175" x1="-26.25288"/>
<linearGradient id="e" y2="118.8367" xlink:href="#a" gradientUnits="userSpaceOnUse" x2="89.00298" y1="120.6427" x1="85.86581"/>
<linearGradient id="f" y2="125.9596" gradientUnits="userSpaceOnUse" x2="89.70349" y1="125.8732" x1="85.64042">
<stop stop-color="#fff" offset="0"/>
<stop stop-color="#aaa" offset="1"/>
</linearGradient>
<linearGradient id="a">
<stop stop-color="#f3ff49" offset="0"/>
<stop stop-color="#ffa01e" offset="1"/>
</linearGradient>
<linearGradient id="h" y2="128.7048" gradientUnits="userSpaceOnUse" x2="70.21282" gradientTransform="matrix(.845944 0 0 1 30.52281 -4.619314)" y1="132.3595" x1="66.82119">
<stop stop-color="#5a5a5a" offset="0"/>
<stop offset="1"/>
</linearGradient>
</defs>
<g transform="translate(-169.97577 -149.97398)">
<circle stroke-linejoin="round" style="color:#000000" stroke-width=".8704858" fill-rule="evenodd" stroke-linecap="round" transform="matrix(1.087654,0,0,1.087684,-16.16957,-14.33312)" stroke="#c8c8c8" cy="159" cx="179" stroke-miterlimit="0" r="7" fill="#c8c8c8"/>
<rect style="color:#000000" height="24" width="24" y="150" x="170" fill="none"/>
<circle stroke-linejoin="round" style="color:#000000" stroke-width=".9301261" fill-rule="evenodd" stroke-linecap="round" transform="matrix(1.075061,0,0,1.075185,-14.43475,-12.95411)" stroke="#000" cy="159" cx="179" stroke-miterlimit="0" r="7" fill="url(#c)"/>
<path fill-rule="evenodd" fill="url(#d)" d="m172 160c5-1 4-6 9-7-2-2-5.5-1.1667-7 0s-3 5-2 7z"/>
<g transform="matrix(-.707107 .707107 -.732853 -.732853 338.9611 194.4488)">
<path fill-rule="evenodd" fill="url(#i)" d="m85.625 124.8009c1.66667-1 3.33333-1 5 0l-0.37872-8.8418c-1.34906-0.6533-2.61846-0.4612-4.16666 0l-0.45462 8.8418z"/>
<path stroke-linejoin="round" d="m90.62502 124.8009-0.04238-8.8198c-0.84595-1-4.18514-1.0458-5.03108-0.0458l0.07344 8.8656" fill-rule="evenodd" stroke="url(#g)" stroke-linecap="round" stroke-width=".9648682" fill="url(#e)"/>
<path stroke-linejoin="round" d="m85.625 124.8009 0.91846 1.7806c1.03983-0.2114 2.01992-0.173 3 0l1.08154-1.7806c-0.84594-1-4.15406-1-5 0z" fill-rule="evenodd" stroke="url(#h)" stroke-linecap="round" stroke-width=".9648682" fill="url(#f)"/>
<path d="m86.62925 116.947-0.0042 6.2357" stroke="#fff" stroke-linecap="round" stroke-width=".9648682" fill="none"/>
</g>
</g>
</svg>
